H19
FGFBP3
COL3A1
TMSB4X
SPARC
IGF2
IGDCC3
WBP5
ENSG00000224781
LAMP5
COL1A1
DLK1
LUM
FABP7
TCEAL4
PBX3
NRARP
DCN
PLTP
LDOC1
TNNC1
GPC3
IFITM1
POU3F2
DNAPTP3
TRAPPC5
HIST2H2BE
NEUROG1
MFAP4
ENHO
BLOC1S1
IGFBP5
WNT7A
CTXN1
GPC4
JAG1
IFITM2
IRX5
NKX6-2
RHBDL3
ANXA2P2
PCDH8
ENSG00000267742
TNNT1
RRAS
NEUROD4
PLS3
LOC100507194
PPP1R14B
ENSG00000268854
IRX3
LY6E
TPM1
PCP4
C8orf46
EMP3
LGR4
COL6A2
IRX2
GAMT
CXXC4
COL5A2
ITM2A
APOE
NTN1
ENSG00000259627
GXL_693400
COL6A3
FBLN1
LINC00617
MMP2
APOO
C1QL1
COL5A1
SERPINF1
ENPP2
EMC10
ANXA6
LOC642236
CENPW
TMEM158
IFI6
NDUFA11
LY6H
ENSG00000162840
LIPG
TMEM141
SLC9A3R1
OLFML3
TCEAL2
NRN1
NHLH2
TNC
FN1
SOX13
REC8
S100A10
PRTG
FILIP1
GP1BB
FIGNL2
SP8
ENSG00000270225
PITX2
PLP2
DACT1
B3GALT6
GJA1
TP53
TTR
CLEC11A
PCOLCE
BAMBI
PTRF
TSPO
TRIM71
ENSG00000254192
SALL4
HSPA2
TGFBI
PRPS2
GNG11
PTCH1
MIAT
EMILIN1
OTX2
SEC24A
C1orf233
HEY1
CREB3L1
HSPA6
P2RX3
SCML2
SRPX
EHD2
ANXA2
ENSG00000225420
SNTA1
SNAI2
LEFTY2
MKRN3
SPTY2D1
ENSG00000237714
HTR1D
TET1
SKAP2
NID2
XPC
CTDSP1
TYROBP
DIO3
GREB1
ENSG00000258133
DPPA4
LINC00662
SPP1
RASSF3
NR6A1
LOXL1
ZNF439
SOCS3
FAM212A
SHISA2
KIAA0101
USP44
EBF2
NYNRIN
PDZRN4
SMTNL2
ONECUT2
PTGDS
MT2A
NQO1
IGFBP3
TNFRSF1A
MEG3
PCP4L1
LOC100272217
RGS19
SHOX2
TMEM88
SLIT2
DUSP23
AMOT
PLAGL1
BST2
AIF1
C17orf51
LAPTM5
FURIN
ENSG00000254589
AK094343
PARM1
PLAT
FLRT2
RAB31
CTSA
LOC100131540
C1QC
FIBIN
C1QA
PRR5
SLC7A8
TMEM119
TAC3
CDON
MRPL23
AK123891
KLHL28
EGLN3
LAMA1
CREBRF
SERPINI1
ENSG00000229191
ANXA2P3
COL15A1
FBXO2
COL4A5
ENSG00000236886
FOSL2
ENSG00000267580
NRGN
EGFL7
LOC389895
ARHGEF3
AQP1
TMEM151A
ADRA2C
APOOP5
CD83
FZD8
LOC100506013
COL14A1
SCARA3
METTL7A
ZNF524
EIF2AK3
PTH1R
GXL_382759
PAMR1
SNCB
NFIB
STAB1
OPCML
PRSS35
VSTM2B
GRM3
OCIAD2
OSTF1
ENSG00000255629
STRA6
HPDL
ABHD6
CD14
PTGES
BCL11A
ST3GAL1
SH2D5
CASP6
AK123455
SERPINB6
C1QB
ANXA11
C1orf85
ZNF460
HOXA1
PMCH
LEF1
FAM229A
FAM107A
RSPO3
MIR503HG
CSRNP1
SOSTDC1
MASP1
CALB2
PLAC9
TCF19
CDKN2C
NOG
CSF1
VGF
PCYT1B
TMEM132B
RALYL
C1orf61
TMEM117
EFEMP2
LRRN2
SRGN
FOXO6
S100B
CCL2
SLC6A9
CDH20
VAX2
4-Mar
MT3
SLC40A1
KRT18
PRICKLE3
GREB1L
SEPP1
KRT8
GPSM3
COL9A3
PLEKHG3
TGFB1
TMEM155
ADAMTS9
NPR3
MAN1A1
A2M
DLX1
KCNK5
HTRA3
ATP7B
NDP
C11orf96
GUCY1A3
LHX4
CLDN5
GABBR2
GALNT10
LIX1
ETV5
TACR1
FHDC1
GPR83
TNN
ZNF502
SIPA1
AK058006
CTF1
OSR1
NFIA
COL4A6
JOSD2
MYBL1
MAL2
ST8SIA3
FAM5C
MIR210HG
FCER1G
LTBP3
VAMP8
SLC17A7
ANXA1
FAM78A
IFI30
TMEM108
CD4
SHISA4
LOC440173
PYCRL
COL21A1
RNASE6
DDR2
LOC284648
PDGFD
LRAT
C19orf38
STAT6
ETV4
MSRA
SYNPO
TMEM51-AS1
NDUFA4L2
C17orf97
EMX2
INE2
FREM1
GATA5
SORCS3
SALL3
KRT19
SYNPO2
SHC3
TRIM47
PCDHB5
SCRG1
COL11A1
TPD52L1
ABCG1
RGS5
CD74
SOX5
RSPO2
F10
ADRA2A
CYS1
ZNF483
CDK18
COPZ2
SLC4A3
3-Mar
SLC16A3
ZNF185
PPP1R1B
NFIX
ENSG00000258663
GGT5
FLJ37201
PLXNA4
GALNT14
FOLR2
OSBP2
CAMK2B
CERKL
MLC1
SPRN
CHL1
BCL11B
C1QTNF7
KCNK12
LHX2
HOXA11
WAS
DMRT3
FAM227A
IQSEC2
ZBTB47
IGSF21
SLIT3
ADARB2
TENC1
VSIG4
NEUROD6
IGFBP6
PCDHB15
CCDC177
HOPX
SYN3
GMDS
MMRN2
DUSP9
LRRC3B
JAKMIP1
KLF2
MYL3
LYN
STS
ARHGAP31
PEAR1
RIMBP2
PDE2A
SERPINE1
ABHD16B
NLRP2
RASSF5
DNHD1
AK124606
C16orf74
MME
ARSI
FAP
CALB1
ENSG00000236841
PRKCB
LMO2
UNC5A
RNASE1
EMILIN2
HIC1
ATOH7
RTL1
IGF1
CA12
ARHGDIB
KIAA1217
CACNG8
TAPSAR1
GALNT12
CILP
NFIC
KCNA5
CFI
RIN1
ITGA4
IL1R1
C1QTNF5
CAPG
CYBB
TMEM229B
PSMB8
CRYM
PKP2
TYRP1
BMP8A
NOL4
CSF1R
NME5
NEUROD2
PTHLH
F3
ADAP2
TFAP2C
CCKBR
SLC9A9
TDRD7
NEGR1
NTS
SLC15A4
LOC375295
TFPI2
NETO1
GOLGA7B
CGNL1
ZNF575
CTSS
HSPB6
BRINP2
PLCE1
TMEM173
PRKCDBP
FAR2
SRCRB4D
RHOD
LMOD1
SCN4B
ITGA11
PRR16
TLE2
TGM2
CCDC103
FABP6
FMOD
LRRC25
MADCAM1
MPPED1
CHRDL2
PPIEL
GDF6
MGLL
CLDN1
SEL1L3
ANGPTL4
HMX1
GCNT1
ADAMTSL2
SYN2
PDE7B
MMP9
ARHGAP10
CPZ
C3
ITGB2
ZFPM2
SSH3
ADAMTSL5
AMIGO2
SFXN2
TP73
CLIC6
LCP1
SPI1
DLX2
GRM5-AS1
CPLX3
CPXM2
DIRC3
F13A1
ENSG00000223774
SPON2
SOX6
TRPM3
IFI44L
SIAH3
DKK1
TBX3
LRRC16A
PHYHD1
TDO2
CRISPLD2
NFATC2
GPR12
CACNA1A
LST1
DLG2
DSC3
ALPK2
SLC39A2
CPQ
RAC2
ADORA3
FAM83H
EPSTI1
MYOF
ANO1
CCDC69
ENSG00000205959
PTRH1
SULT1A1
CACNA1E
PITX1
WISP1
NRK
FAM129A
COBLL1
UCKL1-AS1
ITPR2
SYT9
MPEG1
ENSG00000267026
NPY
CYB5R2
CMKLR1
CPED1
SVEP1
OLFM3
RNF135
MYO5B
DLG5-AS1
ENSG00000259370
HCK
KCNQ3
HNMT
CP
PLCB2
AK125162
WNT8B
ABI3
DMRTA2
AKAP5
SPHKAP
TBC1D8B
ALPK1
SLAMF8
HLX
PTGIR
PROX1-AS1
CD163
A2M-AS1
ATP6V1B1
TRIM38
EFHC2
TFEB
EMX2OS
GXL_744872
GHR
KIAA0319
RIN3
PAPPA2
PIP5K1B
SLC5A12
NPAS2
GABRA2
MS4A4A
EPAS1
ATP2B2
GPR64
TMEM86A
SP6
GPRC5A
C4orf32
PTCHD1
BDKRB2
CHD5
SLC17A8
RBM47
KIAA1199
SLFN11
IFIH1
RCSD1
TLR4
THRB
NCKAP1L
LAIR1
KCNG1
C1QTNF1
HTR2C
ARHGAP9
PYCARD
ITGA1
GRAMD3
FCGR2A
HSD17B2
NCF4
HAVCR2
ZNF469
C4orf19
CYTH4
ITPKA
THBD
TRABD2A
HPSE2
TCIRG1
BDKRB1
LOC100506731
DMRTA1
PTAFR
AMPD3
FMNL1
ARHGAP22
CSMD2
LMAN1L
PARP9
CD163L1
HOXA-AS5
RIBC1
COL16A1
LTBR
AK124684
MS4A6A
KCNK6
HAPLN1
FAM216B
ALDH3B1
FOXG1
KCNQ5
NMI
SH3RF2
MICAL2
C14orf23
TLL1
FLT1
FCGBP
CSF3R
PHF11
TEK
PTPN6
GBP1
AIFM3
INHBA-AS1
LRP1B
NFAM1
ITGAM
LILRB5
CNTNAP4
TBXAS1
MCTP2
NFKBID
ELF3
PLXNB3
SLC22A3
PTPRC
SLCO2B1
LYZ
OTX2-AS1
ENSG00000225410
MYLK4
DLX6-AS1
SYK
CD28
LSP1
CD53
PLEK
SLC6A11
MPZL3
SLPI
IKBKE
ENSG00000248702
SLC4A10
P2RY6
LYSMD2
IL33
CASP1
ACOT11
HCLS1
HCST
CD86
GALNT6
FPR3
CHSY3
KLF8
OLR1
CLDN2
S100A9
TNFAIP8L2
PPARG
CD40
NRROS
IL2RB
FER1L5
TMPRSS13
CHI3L1
METTL7B
ENSG00000218014
DBX2
ENSG00000215158
ENSG00000266283
PHOX2B
RD3
HKDC1
ADAM33
LAMC3
TMEM37
ACOX2
CASP8
GALNT5
TNFSF15
CPA1
SLC47A1
SLC16A5
INMT
SLC5A7
GATA6
HSPB7
P2RX6
SLC34A2
APOL6
ENSG00000271134
MB
ONECUT3
AKR1B10
ENSG00000223722
ENSG00000240666
PTGER4
IL18R1
LINC00890
CHRNA2
ENSG00000254902
OTP
XIST
LOC100996619
LOC388210
DBX1
PDIA2
PTF1A
ADIRF
PIWIL2
LOC145845
HOXD1
SNX31
HSD17B7P2
AK129542
FAM72D
PAX5
LHX3
SCML4
NKX6-1
CTXN3
LOC644656
TSSK3
HOXB1
NEUROG3
CXXC11
ENSG00000231827
LOC100132352
AK125504
AACSP1
DPPA2
GJA5
S1PR5
ST14
SPINK5
KLHDC7B
TLR7
REN
ODF3L1
CACNG3
ENSG00000213606
AMICA1
CCL14
IGFL2
ERMN
FEZF1
EMX1
CHRM1
PCED1B
HAND1
LOC100130502
HAND2
C11orf88
COL17A1
FEZF2
AMBN
CD180
ALOX15
MT1E
WNT2
ENSG00000234921
GRHL2
GMFG
SPTLC3
HOXC11
HOTAIR
MMP28
ENSG00000238276
GATA6-AS1
GNA15
SAMSN1
LILRA5
FCGR2B
HOXB13
DAPL1
DOK2
BCL2A1
RAX
TBR1/SLC4A10
ENSG00000236502
ENSG00000224076
LOC100996635
SMIM1
ACPP
ENSG00000251151
EOMES
TBR1
AKAP14
OTX1
GFAP
ABCD2
C1orf168
AK097033
HPGDS
HOXB-AS5
CRX
GIMAP6
SLC26A4-AS1
GABRP
TREM2
LGR6
LILRB2
SIX3
GJD4
GABRG1
VAX1
NR2E1
ENSG00000225156
FCGR3A
LOC100505588
SORCS1
LOC645321
ENSG00000213943
GBP4
LINC00305
EVX1
GABRA4
DKFZp571K0837
ONECUT1
ENSG00000236154
HES3
LOC400499
SLITRK2
LOC388210/LOC400499
POU5F1
FLJ43489
NKX6-3
HS3ST1
SLITRK4
ZXDA
ZNF208
LOC441666
ZNF736
HBD
TMEM257
TEKT4P2
ENSG00000227986
